{
  "type": "service_account",
  "project_id": "shokworks-projects",
  "private_key_id": "da58218161247ee805d6fa80a12808d644385749",
  "private_key": "-----BEGIN PRIVATE KEY-----\nMIIEugIBADANBgkqhkiG9w0BAQEFAASCBKQwggSgAgEAAoIBAQDnYP+7vbdmCyJ2\npP4xM/P2jg6mucwd0AOnGcUucJivZNvf5+no2L206ourqxWw3YGalSi64f06mVEE\nBlwyAUo1fuzy+CQsYaINXOF/WqSbtZ6FkBQEIxcBgi8w9lIZd7XMdAFG0rsHAcvV\n+BzY7la6yEHWHuod+XRdddATIvTfD0OCGGQUJ6P6wfSpaJlwaJTYiyGL5de0Qzqi\nzbyURIB/BemrTeXTk16MbZmwHwdf9cMIj3rOhb/jjX+wX4sJL3HsyQ+UJsrTFpQW\n5mTClFXGDYsTzCq31derYdYIsZl7/qhM9IHZclUug/lHPsruuzttd75DGtcxp6FH\nSqL8GsAhAgMBAAECgf9sz/ErYqiK8DGXPu5wkKvqvmPuqTsnN8ekjhVtJis6UPRf\nhgOEK0VVNEGNXqgCfClJgDeePgSrN+79NZLKqFCifHME0L/pH0pWowVEsYnKZ19A\n8MELVZnObhiMiZPbwbB9kaLjfgAbVKF+mkvSJtZr7oq+jG/pBDnQuiA8BD2kg609\nvdgqHT0ep4r4fG1JIsTRXMABDmS759nRnm7qNXgIVgfiSD4MZdkSPkB2KcYKvHkm\nPMDgJZXm4/ZXBFD3HRY4R8t6RfQdswCVc18Mn4+9EeGXhKpc0Idfla6NdMgVrz8I\nXzh2e8ReLNAknOso4cuDo1wWX+tmKGbSMqN29t0CgYEA+y9NAkx3VYJLdW8pSMlb\nVr+N7PBEQZl8A1PL/k8TT4DX5moOQCRWp3rdy+kahImO08oHnvIqpcQJKlHgCaa1\nstXz3vKbHHQ1XN1TiuRmq2lF0VmbCUlPP8RtdxoLbh1C3WulHtsk0dPXA8Eeqs2B\nUleFFwOYA2oe6qyvH6aRDvUCgYEA69CABH7L7WACQ5MwkoYcivkxw9CE3sV3hkQ2\nI4FDg0GTQqd7+vKaa38HLlHeRJWtwYrvpnYfV68sh5vAaEkvIwDJxHj/8Uh0q80n\nG+/11yh7EsRap7j9v9PhMSa0V+/awa9RIF0tDYE5rKB7lJOQH/wKxGLH/t0qNbMT\nvSj4GP0CgYAPOjXb7tDJMUXrz5pcHEDaSHCNLZ+lrm1TMlBKkXalOjVcdY95mfpa\n2tr5Up9V65TqB/RgUWP+epznoOEJFL8tIUVQfbqjhfP6NjyrTd9fgtlFsL3yWSxh\nvEG6l6ybt1BnZfAzp6tawRHm211Fk4HEgSPDWmdrxZIsPd27+HgQxQKBgDRJ81kL\n1KQ6GcZqKOcUndejEgndftj26F35WhfdXd8I92JcSP2INf2IGUuIE8UZe4HjEOjU\nYHbM/Q7E1pFJSQ516keKnRYfft9pijaDqvuemku7Bm8SchHLJbAEaRDmupcgDNkk\nUA0ijmtc2opDfj3ZYXnSfY5h9C4cG1BieUDxAoGAT+y7R85b/K6ksOln/sV3zYkk\nIwLlkBHGKW4cqS2aDRblRBWDDGTzq6TR5Ob7Ka/5GD7mAbh0AtiWHi/SI/FR4iRi\n5SqSjbxBM8SSiLqGbJ97bwvag5+87Il56w+vIgqP4XFxaM3e6e+/bBJdaEc5L9JG\ncdxQtUDwdBPslKJKSVY=\n-----END PRIVATE KEY-----\n",
  "client_email": "firebase-adminsdk-a5qtp@shokworks-projects.iam.gserviceaccount.com",
  "client_id": "104944491364979010277",
  "auth_uri": "https://accounts.google.com/o/oauth2/auth",
  "token_uri": "https://oauth2.googleapis.com/token",
  "auth_provider_x509_cert_url": "https://www.googleapis.com/oauth2/v1/certs",
  "client_x509_cert_url": "https://www.googleapis.com/robot/v1/metadata/x509/firebase-adminsdk-a5qtp%40shokworks-projects.iam.gserviceaccount.com"
}
